{
	"name": "behaviortree",
	"authors": ["Alexander Orlov"],
	"description": "This models the components of a behaviour tree",
	"copyright": "Copyright © 2017, Alexander Orlov",
	"license": "MIT",
	"targetPath": "./bin", 
	"targetType": "library"
}